[
  {
    "link": "assets/sounds/player-tracklist.1.mp3",
    "metadata": {}
  },
  {
    "link": "assets/sounds/player-tracklist.2.mp3",
    "metadata": {}
  },
  {
    "link": "assets/sounds/player-tracklist.3.mp3",
    "metadata": {}
  },
  {
    "link": "assets/sounds/player-tracklist.4.mp3",
    "metadata": {}
  },
  {
    "link": "assets/sounds/player-tracklist.5.mp3",
    "metadata": {}
  },
  {
    "link": "assets/sounds/player-tracklist.6.mp3",
    "metadata": {}
  },
  {
    "link": "assets/sounds/player-tracklist.7.mp3",
    "metadata": {}
  },
  {
    "link": "assets/sounds/player-tracklist.8.mp3",
    "metadata": {}
  },
  {
    "link": "assets/sounds/player-tracklist.9.mp3",
    "metadata": {}
  },
  {
    "link": "assets/sounds/player-tracklist.10.mp3",
    "metadata": {}
  }
]
